Lab4/simulation/qsim/LogicalStep_Lab4.msim.vcd
$comment
	File created using the following command:
		vcd file LogicalStep_Lab4.msim.vcd -direction
$end
$date
	Thu Jul 18 15:21:05 2024
$end
$version
	ModelSim Version 10.5b
$end
$timescale
	1ps
$end

$scope module logicalstep_lab4_top_vhd_vec_tst $end
$var wire 1 ! clkin_50 $end
$var wire 1 " EW_a $end
$var wire 1 # EW_d $end
$var wire 1 $ EW_g $end
$var wire 1 % leds [7] $end
$var wire 1 & leds [6] $end
$var wire 1 ' leds [5] $end
$var wire 1 ( leds [4] $end
$var wire 1 ) leds [3] $end
$var wire 1 * leds [2] $end
$var wire 1 + leds [1] $end
$var wire 1 , leds [0] $end
$var wire 1 - NS_a $end
$var wire 1 . NS_d $end
$var wire 1 / NS_g $end
$var wire 1 0 pb_n [3] $end
$var wire 1 1 pb_n [2] $end
$var wire 1 2 pb_n [1] $end
$var wire 1 3 pb_n [0] $end
$var wire 1 4 rst_n $end
$var wire 1 5 seg7_char1 $end
$var wire 1 6 seg7_char2 $end
$var wire 1 7 seg7_data [6] $end
$var wire 1 8 seg7_data [5] $end
$var wire 1 9 seg7_data [4] $end
$var wire 1 : seg7_data [3] $end
$var wire 1 ; seg7_data [2] $end
$var wire 1 < seg7_data [1] $end
$var wire 1 = seg7_data [0] $end
$var wire 1 > sim_blink_sig $end
$var wire 1 ? sim_sm_clken $end
$var wire 1 @ sw [7] $end
$var wire 1 A sw [6] $end
$var wire 1 B sw [5] $end
$var wire 1 C sw [4] $end
$var wire 1 D sw [3] $end
$var wire 1 E sw [2] $end
$var wire 1 F sw [1] $end
$var wire 1 G sw [0] $end

$scope module i1 $end
$var wire 1 H gnd $end
$var wire 1 I vcc $end
$var wire 1 J unknown $end
$var wire 1 K devoe $end
$var wire 1 L devclrn $end
$var wire 1 M devpor $end
$var wire 1 N ww_devoe $end
$var wire 1 O ww_devclrn $end
$var wire 1 P ww_devpor $end
$var wire 1 Q ww_clkin_50 $end
$var wire 1 R ww_rst_n $end
$var wire 1 S ww_pb_n [3] $end
$var wire 1 T ww_pb_n [2] $end
$var wire 1 U ww_pb_n [1] $end
$var wire 1 V ww_pb_n [0] $end
$var wire 1 W ww_sw [7] $end
$var wire 1 X ww_sw [6] $end
$var wire 1 Y ww_sw [5] $end
$var wire 1 Z ww_sw [4] $end
$var wire 1 [ ww_sw [3] $end
$var wire 1 \ ww_sw [2] $end
$var wire 1 ] ww_sw [1] $end
$var wire 1 ^ ww_sw [0] $end
$var wire 1 _ ww_leds [7] $end
$var wire 1 ` ww_leds [6] $end
$var wire 1 a ww_leds [5] $end
$var wire 1 b ww_leds [4] $end
$var wire 1 c ww_leds [3] $end
$var wire 1 d ww_leds [2] $end
$var wire 1 e ww_leds [1] $end
$var wire 1 f ww_leds [0] $end
$var wire 1 g ww_sim_sm_clken $end
$var wire 1 h ww_sim_blink_sig $end
$var wire 1 i ww_EW_a $end
$var wire 1 j ww_EW_g $end
$var wire 1 k ww_EW_d $end
$var wire 1 l ww_NS_a $end
$var wire 1 m ww_NS_g $end
$var wire 1 n ww_NS_d $end
$var wire 1 o ww_seg7_data [6] $end
$var wire 1 p ww_seg7_data [5] $end
$var wire 1 q ww_seg7_data [4] $end
$var wire 1 r ww_seg7_data [3] $end
$var wire 1 s ww_seg7_data [2] $end
$var wire 1 t ww_seg7_data [1] $end
$var wire 1 u ww_seg7_data [0] $end
$var wire 1 v ww_seg7_char1 $end
$var wire 1 w ww_seg7_char2 $end
$var wire 1 x \pb_n[2]~input_o\ $end
$var wire 1 y \sw[0]~input_o\ $end
$var wire 1 z \sw[1]~input_o\ $end
$var wire 1 { \sw[2]~input_o\ $end
$var wire 1 | \sw[3]~input_o\ $end
$var wire 1 } \sw[4]~input_o\ $end
$var wire 1 ~ \sw[5]~input_o\ $end
$var wire 1 !! \sw[6]~input_o\ $end
$var wire 1 "! \sw[7]~input_o\ $end
$var wire 1 #! \seg7_data[6]~output_o\ $end
$var wire 1 $! \leds[0]~output_o\ $end
$var wire 1 %! \leds[1]~output_o\ $end
$var wire 1 &! \leds[2]~output_o\ $end
$var wire 1 '! \leds[3]~output_o\ $end
$var wire 1 (! \leds[4]~output_o\ $end
$var wire 1 )! \leds[5]~output_o\ $end
$var wire 1 *! \leds[6]~output_o\ $end
$var wire 1 +! \leds[7]~output_o\ $end
$var wire 1 ,! \sim_sm_clken~output_o\ $end
$var wire 1 -! \sim_blink_sig~output_o\ $end
$var wire 1 .! \EW_a~output_o\ $end
$var wire 1 /! \EW_g~output_o\ $end
$var wire 1 0! \EW_d~output_o\ $end
$var wire 1 1! \NS_a~output_o\ $end
$var wire 1 2! \NS_g~output_o\ $end
$var wire 1 3! \NS_d~output_o\ $end
$var wire 1 4! \seg7_data[0]~output_o\ $end
$var wire 1 5! \seg7_data[1]~output_o\ $end
$var wire 1 6! \seg7_data[2]~output_o\ $end
$var wire 1 7! \seg7_data[3]~output_o\ $end
$var wire 1 8! \seg7_data[4]~output_o\ $end
$var wire 1 9! \seg7_data[5]~output_o\ $end
$var wire 1 :! \seg7_char1~output_o\ $end
$var wire 1 ;! \seg7_char2~output_o\ $end
$var wire 1 <! \clkin_50~input_o\ $end
$var wire 1 =! \INST10|clk_proc:COUNT[0]~0_combout\ $end
$var wire 1 >! \INST10|clk_proc:COUNT[0]~q\ $end
$var wire 1 ?! \INST10|clk_proc:COUNT[1]~1_combout\ $end
$var wire 1 @! \INST10|clk_proc:COUNT[1]~q\ $end
$var wire 1 A! \INST10|clk_proc:COUNT[1]~2\ $end
$var wire 1 B! \INST10|clk_proc:COUNT[2]~1_combout\ $end
$var wire 1 C! \INST10|clk_proc:COUNT[2]~q\ $end
$var wire 1 D! \INST10|clk_proc:COUNT[2]~2\ $end
$var wire 1 E! \INST10|clk_proc:COUNT[3]~1_combout\ $end
$var wire 1 F! \INST10|clk_proc:COUNT[3]~q\ $end
$var wire 1 G! \INST10|clk_proc:COUNT[3]~2\ $end
$var wire 1 H! \INST10|clk_proc:COUNT[4]~1_combout\ $end
$var wire 1 I! \INST10|clk_proc:COUNT[4]~q\ $end
$var wire 1 J! \INST10|clk_proc:COUNT[4]~2\ $end
$var wire 1 K! \INST10|clk_proc:COUNT[5]~1_combout\ $end
$var wire 1 L! \INST10|clk_proc:COUNT[5]~q\ $end
$var wire 1 M! \INST10|clk_proc:COUNT[5]~2\ $end
$var wire 1 N! \INST10|clk_proc:COUNT[6]~1_combout\ $end
$var wire 1 O! \INST10|clk_proc:COUNT[6]~q\ $end
$var wire 1 P! \INST10|clk_proc:COUNT[6]~2\ $end
$var wire 1 Q! \INST10|clk_proc:COUNT[7]~1_combout\ $end
$var wire 1 R! \INST10|clk_proc:COUNT[7]~q\ $end
$var wire 1 S! \INST10|clk_proc:COUNT[7]~2\ $end
$var wire 1 T! \INST10|clk_proc:COUNT[8]~1_combout\ $end
$var wire 1 U! \INST10|clk_proc:COUNT[8]~q\ $end
$var wire 1 V! \INST10|clk_proc:COUNT[8]~2\ $end
$var wire 1 W! \INST10|clk_proc:COUNT[9]~1_combout\ $end
$var wire 1 X! \INST10|clk_proc:COUNT[9]~q\ $end
$var wire 1 Y! \INST10|clk_proc:COUNT[9]~2\ $end
$var wire 1 Z! \INST10|clk_proc:COUNT[10]~1_combout\ $end
$var wire 1 [! \INST10|clk_proc:COUNT[10]~q\ $end
$var wire 1 \! \rst_n~input_o\ $end
$var wire 1 ]! \INST4|sreg~1_combout\ $end
$var wire 1 ^! \INST4|sreg~0_combout\ $end
$var wire 1 _! \pb_n[0]~input_o\ $end
$var wire 1 `! \INST7|sreg~1_combout\ $end
$var wire 1 a! \INST7|sreg~0_combout\ $end
$var wire 1 b! \INST8|sreg~0_combout\ $end
$var wire 1 c! \INST8|sreg~q\ $end
$var wire 1 d! \pb_n[1]~input_o\ $end
$var wire 1 e! \INST5|sreg~1_combout\ $end
$var wire 1 f! \INST5|sreg~0_combout\ $end
$var wire 1 g! \INST6|sreg~0_combout\ $end
$var wire 1 h! \INST6|sreg~q\ $end
$var wire 1 i! \INST2|clk_divider:counter[0]~1_combout\ $end
$var wire 1 j! \pb_n[3]~input_o\ $end
$var wire 1 k! \INST3|pb_n_filtered[3]~0_combout\ $end
$var wire 1 l! \INST2|clk_divider:counter[0]~q\ $end
$var wire 1 m! \INST2|clk_divider:counter[0]~2\ $end
$var wire 1 n! \INST2|clk_divider:counter[1]~1_combout\ $end
$var wire 1 o! \INST2|clk_divider:counter[1]~q\ $end
$var wire 1 p! \INST2|clk_divider:counter[1]~2\ $end
$var wire 1 q! \INST2|clk_divider:counter[2]~1_combout\ $end
$var wire 1 r! \INST2|clk_divider:counter[2]~q\ $end
$var wire 1 s! \INST2|clk_divider:counter[2]~2\ $end
$var wire 1 t! \INST2|clk_divider:counter[3]~1_combout\ $end
$var wire 1 u! \INST2|clk_divider:counter[3]~q\ $end
$var wire 1 v! \INST2|clk_divider:counter[3]~2\ $end
$var wire 1 w! \INST2|clk_divider:counter[4]~1_combout\ $end
$var wire 1 x! \INST2|clk_divider:counter[4]~q\ $end
$var wire 1 y! \INST2|clk_reg_extend~0_combout\ $end
$var wire 1 z! \INST2|clk_reg_extend~1_combout\ $end
$var wire 1 {! \INST2|sm_clken~combout\ $end
$var wire 1 |! \INST9|current_state~48_combout\ $end
$var wire 1 }! \INST9|current_state.S15~q\ $end
$var wire 1 ~! \INST9|current_state~45_combout\ $end
$var wire 1 !" \INST9|current_state.S0~q\ $end
$var wire 1 "" \INST9|next_state.S1~0_combout\ $end
$var wire 1 #" \INST9|current_state~35_combout\ $end
$var wire 1 $" \INST9|current_state.S1~q\ $end
$var wire 1 %" \INST9|next_state.S2~0_combout\ $end
$var wire 1 &" \INST9|current_state.S2~q\ $end
$var wire 1 '" \INST9|current_state~34_combout\ $end
$var wire 1 (" \INST9|current_state.S3~q\ $end
$var wire 1 )" \INST9|current_state~36_combout\ $end
$var wire 1 *" \INST9|current_state.S4~q\ $end
$var wire 1 +" \INST9|current_state~37_combout\ $end
$var wire 1 ," \INST9|current_state.S5~q\ $end
$var wire 1 -" \INST9|WideOr4~0_combout\ $end
$var wire 1 ." \INST9|current_state~41_combout\ $end
$var wire 1 /" \INST9|current_state~42_combout\ $end
$var wire 1 0" \INST9|current_state.S6~q\ $end
$var wire 1 1" \INST9|current_state~47_combout\ $end
$var wire 1 2" \INST9|current_state.S7~q\ $end
$var wire 1 3" \INST9|current_state~46_combout\ $end
$var wire 1 4" \INST9|current_state.S8~q\ $end
$var wire 1 5" \INST9|next_state.S9~0_combout\ $end
$var wire 1 6" \INST9|current_state.S9~q\ $end
$var wire 1 7" \INST9|next_state.S10~0_combout\ $end
$var wire 1 8" \INST9|current_state.S10~q\ $end
$var wire 1 9" \INST9|current_state~38_combout\ $end
$var wire 1 :" \INST9|current_state.S11~q\ $end
$var wire 1 ;" \INST9|current_state~39_combout\ $end
$var wire 1 <" \INST9|current_state.S12~q\ $end
$var wire 1 =" \INST9|current_state~40_combout\ $end
$var wire 1 >" \INST9|current_state.S13~q\ $end
$var wire 1 ?" \INST9|WideOr7~1_combout\ $end
$var wire 1 @" \INST9|current_state~43_combout\ $end
$var wire 1 A" \INST9|current_state~44_combout\ $end
$var wire 1 B" \INST9|current_state.S14~q\ $end
$var wire 1 C" \INST9|yellow~0_combout\ $end
$var wire 1 D" \INST10|DOUT_TEMP[6]~0_combout\ $end
$var wire 1 E" \INST9|WideOr2~0_combout\ $end
$var wire 1 F" \INST9|WideOr6~0_combout\ $end
$var wire 1 G" \INST9|WideOr9~0_combout\ $end
$var wire 1 H" \INST9|WideOr8~0_combout\ $end
$var wire 1 I" \INST9|WideOr9~combout\ $end
$var wire 1 J" \INST9|WideOr8~1_combout\ $end
$var wire 1 K" \INST9|WideOr8~combout\ $end
$var wire 1 L" \INST9|WideOr7~0_combout\ $end
$var wire 1 M" \INST9|WideOr7~combout\ $end
$var wire 1 N" \INST9|WideOr4~combout\ $end
$var wire 1 O" \INST2|blink_sig~0_combout\ $end
$var wire 1 P" \INST2|blink_sig~q\ $end
$var wire 1 Q" \INST9|yellowEW~combout\ $end
$var wire 1 R" \INST9|Selector3~2_combout\ $end
$var wire 1 S" \INST9|Selector2~2_combout\ $end
$var wire 1 T" \INST10|DOUT[0]~0_combout\ $end
$var wire 1 U" \INST10|DOUT[3]~1_combout\ $end
$var wire 1 V" \INST2|clk_reg_extend\ [1] $end
$var wire 1 W" \INST2|clk_reg_extend\ [0] $end
$var wire 1 X" \INST4|sreg\ [1] $end
$var wire 1 Y" \INST4|sreg\ [0] $end
$var wire 1 Z" \INST3|sreg0\ [3] $end
$var wire 1 [" \INST3|sreg0\ [2] $end
$var wire 1 \" \INST3|sreg0\ [1] $end
$var wire 1 ]" \INST3|sreg0\ [0] $end
$var wire 1 ^" \INST7|sreg\ [1] $end
$var wire 1 _" \INST7|sreg\ [0] $end
$var wire 1 `" \INST3|sreg4\ [3] $end
$var wire 1 a" \INST3|sreg4\ [2] $end
$var wire 1 b" \INST3|sreg4\ [1] $end
$var wire 1 c" \INST3|sreg4\ [0] $end
$var wire 1 d" \INST5|sreg\ [1] $end
$var wire 1 e" \INST5|sreg\ [0] $end
$var wire 1 f" \INST3|sreg3\ [3] $end
$var wire 1 g" \INST3|sreg3\ [2] $end
$var wire 1 h" \INST3|sreg3\ [1] $end
$var wire 1 i" \INST3|sreg3\ [0] $end
$var wire 1 j" \INST3|sreg1\ [3] $end
$var wire 1 k" \INST3|sreg1\ [2] $end
$var wire 1 l" \INST3|sreg1\ [1] $end
$var wire 1 m" \INST3|sreg1\ [0] $end
$var wire 1 n" \INST10|ALT_INV_DOUT[0]~0_combout\ $end
$var wire 1 o" \INST9|ALT_INV_yellow~0_combout\ $end
$var wire 1 p" \INST9|ALT_INV_WideOr4~combout\ $end
$var wire 1 q" \INST9|ALT_INV_WideOr7~combout\ $end
$var wire 1 r" \INST9|ALT_INV_WideOr8~combout\ $end
$var wire 1 s" \INST9|ALT_INV_WideOr9~combout\ $end
$var wire 1 t" \INST9|ALT_INV_WideOr2~0_combout\ $end
$var wire 1 u" \INST10|ALT_INV_clk_proc:COUNT[10]~q\ $end
$upscope $end
$upscope $end
$enddefinitions $end
#0
$dumpvars
0!
0"
1#
0$
0-
0.
0/
04
05
16
0>
0?
0H
1I
xJ
1K
1L
1M
1N
1O
1P
0Q
0R
0g
0h
0i
0j
1k
0l
0m
0n
0v
1w
1x
xy
xz
x{
x|
x}
x~
x!!
x"!
0#!
0$!
0%!
0&!
0'!
0(!
0)!
0*!
0+!
0,!
0-!
0.!
0/!
10!
01!
02!
03!
04!
05!
06!
07!
08!
09!
0:!
1;!
0<!
1=!
0>!
0?!
0@!
0A!
0B!
0C!
1D!
0E!
0F!
0G!
0H!
0I!
1J!
0K!
0L!
0M!
0N!
0O!
1P!
0Q!
0R!
0S!
0T!
0U!
1V!
0W!
0X!
0Y!
0Z!
0[!
0\!
1]!
0^!
1_!
1`!
0a!
0b!
0c!
1d!
1e!
0f!
0g!
0h!
1i!
1j!
1k!
0l!
0m!
0n!
0o!
1p!
0q!
0r!
0s!
0t!
0u!
1v!
0w!
0x!
0y!
0z!
0{!
0|!
0}!
0~!
0!"
1""
0#"
0$"
0%"
0&"
0'"
0("
0)"
0*"
0+"
0,"
0-"
0."
0/"
00"
01"
02"
03"
04"
05"
06"
07"
08"
09"
0:"
0;"
0<"
0="
0>"
1?"
0@"
0A"
0B"
1C"
0D"
1E"
0F"
0G"
0H"
1I"
0J"
1K"
1L"
1M"
1N"
0O"
0P"
0Q"
0R"
0S"
1T"
0U"
0n"
0o"
0p"
0q"
0r"
0s"
0t"
1u"
10
11
12
13
1S
1T
1U
1V
xW
xX
xY
xZ
x[
x\
x]
x^
0_
0`
0a
0b
0c
0d
0e
0f
0o
0p
0q
0r
0s
0t
0u
0V"
0W"
0X"
0Y"
0Z"
0["
0\"
0]"
0^"
0_"
0`"
0a"
0b"
0c"
0d"
0e"
0f"
0g"
0h"
0i"
0j"
0k"
0l"
0m"
0%
0&
0'
0(
0)
0*
0+
0,
07
08
09
0:
0;
0<
0=
x@
xA
xB
xC
xD
xE
xF
xG
$end
#20000
1!
1Q
1<!
1>!
1Y"
1]"
1_"
1m"
1e"
1i"
1f!
1a!
1^!
0=!
1?!
#40000
0!
0Q
0<!
#60000
1!
1Q
1<!
0>!
1@!
1X"
1\"
1^"
1l"
1d"
1h"
0k!
0]!
0^!
0`!
0a!
0e!
0f!
1#"
1=!
#80000
0!
0Q
0<!
#100000
1!
1Q
1<!
1>!
0Y"
0X"
1["
0_"
0^"
1k"
0e"
0d"
1g"
1l!
0i!
1m!
1]!
0#"
0=!
0?!
1A!
1B!
1n!
#120000
0!
0Q
0<!
#140000
1!
1Q
1<!
0>!
0@!
1C!
1Y"
1Z"
1j"
1f"
0l!
1o!
0n!
0p!
1i!
0m!
1^!
0B!
0D!
1=!
0A!
1B!
1D!
1E!
1n!
1p!
1q!
0q!
0E!
#160000
0!
0Q
0<!
#180000
1!
1Q
1<!
1>!
1X"
1l!
0i!
1m!
0]!
0^!
1#"
0=!
1?!
0n!
0p!
1q!
#200000
0!
0Q
0<!
#220000
1!
1Q
1<!
0>!
1@!
0Y"
0X"
0l!
0o!
1r!
0q!
1s!
1O"
1n!
1p!
1i!
0m!
1]!
0#"
1=!
0n!
1q!
0s!
1t!
0t!
#240000
0!
0Q
0<!
#260000
1!
1Q
1<!
1>!
1Y"
1l!
1P"
1-!
1S"
0i!
1m!
1^!
0=!
0?!
1A!
1h
12!
0B!
0D!
1n!
1U"
1>
1m
17!
1E!
1/
1r
1:
#280000
0!
0Q
0<!
#300000
1!
1Q
1<!
0>!
0@!
0C!
1F!
1X"
0l!
1o!
0n!
0p!
1i!
0m!
0]!
0^!
1#"
0E!
1G!
1B!
1D!
1=!
0A!
0B!
1E!
0G!
1H!
1n!
1p!
0q!
1s!
1t!
1q!
0s!
0H!
0t!
#320000
0!
0Q
0<!
#340000
1!
1Q
1<!
1>!
0Y"
0X"
1l!
0i!
1m!
1]!
0#"
0=!
1?!
0n!
0p!
0q!
1s!
1t!
#360000
0!
0Q
0<!
#380000
1!
1Q
1<!
0>!
1@!
1Y"
0l!
0o!
0r!
1u!
0t!
0v!
1q!
0s!
0O"
1n!
1p!
1i!
0m!
1^!
1=!
0n!
0q!
1t!
1v!
1w!
0w!
#400000
0!
0Q
0<!
#420000
1!
1Q
1<!
1>!
1X"
1l!
0P"
0-!
0S"
0i!
1m!
0]!
0^!
1#"
0=!
0?!
1A!
0h
02!
1B!
1n!
0U"
0>
0m
07!
0/
0r
0:
#440000
0!
0Q
0<!
#460000
1!
1Q
1<!
0>!
0@!
1C!
0Y"
0X"
0l!
1o!
0n!
0p!
1i!
0m!
1]!
0#"
0B!
0D!
1=!
0A!
1B!
1D!
0E!
1G!
1n!
1p!
1q!
0q!
1H!
1E!
0G!
0H!
#480000
0!
0Q
0<!
#500000
1!
1Q
1<!
1>!
1Y"
1l!
0i!
1m!
1^!
0=!
1?!
0n!
0p!
1q!
#520000
0!
0Q
0<!
#540000
1!
1Q
1<!
0>!
1@!
1X"
0l!
0o!
1r!
0q!
1s!
1O"
1n!
1p!
1i!
0m!
0]!
0^!
1#"
1=!
0n!
1q!
0s!
0t!
0v!
1w!
1t!
1v!
0w!
#560000
0!
0Q
0<!
#580000
1!
1Q
1<!
1>!
0Y"
0X"
1l!
1P"
1-!
1S"
0i!
1m!
1]!
0#"
0=!
0?!
1A!
1h
12!
0B!
0D!
1n!
1U"
1>
1m
17!
0E!
1G!
1/
1r
1H!
1:
#600000
0!
0Q
0<!
#620000
1!
1Q
1<!
0>!
0@!
0C!
0F!
1I!
1Y"
0l!
1o!
0n!
0p!
1i!
0m!
1^!
0H!
0J!
1E!
0G!
1B!
1D!
1=!
0A!
0B!
0E!
1H!
1J!
1K!
1n!
1p!
0q!
1s!
0t!
0v!
1q!
0s!
0K!
1t!
1v!
1w!
0w!
#640000
0!
14
0Q
1R
1\!
0<!
#660000
1!
1Q
1<!
1>!
1c"
1X"
1l!
0i!
1m!
0]!
0^!
1#"
0=!
1?!
0n!
0p!
0q!
1s!
0t!
0v!
1w!
#680000
0!
0Q
0<!
#700000
1!
1Q
1<!
0>!
1@!
1b"
0Y"
0X"
0l!
0o!
0r!
0u!
1x!
0w!
1y!
1t!
1v!
1q!
0s!
0O"
1n!
1p!
1i!
0m!
0#"
1=!
0n!
0q!
0t!
1w!
#720000
0!
0Q
0<!
#740000
1!
1Q
1<!
1>!
1a"
1l!
1W"
0P"
0-!
0S"
1z!
1{!
1#"
0i!
1m!
0=!
0?!
1A!
0h
1,!
02!
1B!
1n!
1~!
0U"
0>
1g
0m
07!
1?
0/
0r
0:
#760000
0!
0Q
0<!
#780000
1!
1Q
1<!
0>!
0@!
1C!
1`"
0l!
1o!
1V"
1!"
1$"
1%"
1J"
0""
1H"
0{!
0#"
0n!
0p!
1i!
0m!
0B!
0D!
1=!
0A!
0,!
1B!
1D!
1E!
1n!
1p!
1q!
0I"
1s"
0g
0q!
0E!
0?
1(!
1b
1(
#800000
0!
0Q
0<!
#820000
1!
1Q
1<!
1>!
1l!
0i!
1m!
0=!
1?!
0n!
0p!
1q!
#840000
0!
0Q
0<!
#860000
1!
1Q
1<!
0>!
1@!
0l!
0o!
1r!
0q!
1s!
1O"
1n!
1p!
1i!
0m!
1=!
0n!
1q!
0s!
1t!
0t!
#880000
0!
0Q
0<!
#900000
1!
1Q
1<!
1>!
1l!
1P"
1-!
1S"
0i!
1m!
0=!
0?!
1A!
1h
12!
0B!
0D!
1n!
1U"
1>
1m
17!
1E!
1/
1r
1:
#920000
0!
0Q
0<!
#940000
1!
1Q
1<!
0>!
0@!
0C!
1F!
0l!
1o!
0n!
0p!
1i!
0m!
0E!
1G!
1B!
1D!
1=!
0A!
0B!
1E!
0G!
0H!
0J!
1n!
1p!
0q!
1s!
1t!
1q!
0s!
1K!
1H!
1J!
0K!
0t!
#960000
0!
0Q
0<!
#980000
1!
1Q
1<!
1>!
1l!
0i!
1m!
0=!
1?!
0n!
0p!
0q!
1s!
1t!
#1000000
0!
0Q
0<!
#1020000
1!
1Q
1<!
0>!
1@!
0l!
0o!
0r!
1u!
0t!
0v!
1q!
0s!
0O"
1n!
1p!
1i!
0m!
1=!
0n!
0q!
1t!
1v!
0w!
1w!
#1040000
0!
0Q
0<!
#1060000
1!
1Q
1<!
1>!
1l!
0P"
0-!
0S"
0i!
1m!
0=!
0?!
1A!
0h
02!
1B!
1n!
0U"
0>
0m
07!
0/
0r
0:
#1080000
0!
0Q
0<!
#1100000
1!
1Q
1<!
0>!
0@!
1C!
0l!
1o!
0n!
0p!
1i!
0m!
0B!
0D!
1=!
0A!
1B!
1D!
0E!
1G!
1n!
1p!
1q!
0q!
0H!
0J!
1E!
0G!
1H!
1J!
1K!
0K!
#1120000
0!
0Q
0<!
#1140000
1!
1Q
1<!
1>!
1l!
0i!
1m!
0=!
1?!
0n!
0p!
1q!
#1160000
0!
0Q
0<!
#1180000
1!
1Q
1<!
0>!
1@!
0l!
0o!
1r!
0q!
1s!
1O"
1n!
1p!
1i!
0m!
1=!
0n!
1q!
0s!
0t!
0v!
0w!
1t!
1v!
1w!
#1200000
0!
0Q
0<!
#1220000
1!
1Q
1<!
1>!
1l!
1P"
1-!
1S"
0i!
1m!
0=!
0?!
1A!
1h
12!
0B!
0D!
1n!
1U"
1>
1m
17!
0E!
1G!
1/
1r
0H!
0J!
1:
1K!
#1240000
0!
0Q
0<!
#1260000
1!
1Q
1<!
0>!
0@!
0C!
0F!
0I!
1L!
0l!
1o!
0n!
0p!
1i!
0m!
0K!
1M!
1H!
1J!
1E!
0G!
1B!
1D!
1=!
0A!
0B!
0E!
0H!
1K!
0M!
1N!
1n!
1p!
0q!
1s!
0t!
0v!
1q!
0s!
0N!
1t!
1v!
0w!
1w!
#1280000
0!
0Q
0<!
#1300000
1!
1Q
1<!
1>!
1l!
0i!
1m!
0=!
1?!
0n!
0p!
0q!
1s!
0t!
0v!
0w!
#1320000
0!
0Q
0<!
#1340000
1!
1Q
1<!
0>!
1@!
0l!
0o!
0r!
0u!
0x!
1w!
0y!
1t!
1v!
1q!
0s!
0O"
1n!
1p!
1i!
0m!
1=!
0n!
0q!
0t!
0w!
#1360000
0!
0Q
0<!
#1380000
1!
1Q
1<!
1>!
1l!
0W"
0P"
0-!
0S"
0z!
0i!
1m!
0=!
0?!
1A!
0h
02!
1B!
1n!
0U"
0>
0m
07!
0/
0r
0:
#1400000
0!
0Q
0<!
#1420000
1!
1Q
1<!
0>!
0@!
1C!
0l!
1o!
0V"
0n!
0p!
1i!
0m!
0B!
0D!
1=!
0A!
1B!
1D!
1E!
1n!
1p!
1q!
0q!
0E!
#1440000
0!
0Q
0<!
#1460000
1!
1Q
1<!
1>!
1l!
0i!
1m!
0=!
1?!
0n!
0p!
1q!
#1480000
0!
0Q
0<!
#1500000
1!
1Q
1<!
0>!
1@!
0l!
0o!
1r!
0q!
1s!
1O"
1n!
1p!
1i!
0m!
1=!
0n!
1q!
0s!
1t!
0t!
#1520000
0!
0Q
0<!
#1540000
1!
1Q
1<!
1>!
1l!
1P"
1-!
1S"
0i!
1m!
0=!
0?!
1A!
1h
12!
0B!
0D!
1n!
1U"
1>
1m
17!
1E!
1/
1r
1:
#1560000
0!
0Q
0<!
#1580000
1!
1Q
1<!
0>!
0@!
0C!
1F!
0l!
1o!
0n!
0p!
1i!
0m!
0E!
1G!
1B!
1D!
1=!
0A!
0B!
1E!
0G!
1H!
1n!
1p!
0q!
1s!
1t!
1q!
0s!
0H!
0t!
#1600000
0!
0Q
0<!
#1620000
1!
1Q
1<!
1>!
1l!
0i!
1m!
0=!
1?!
0n!
0p!
0q!
1s!
1t!
#1640000
0!
0Q
0<!
#1660000
1!
1Q
1<!
0>!
1@!
0l!
0o!
0r!
1u!
0t!
0v!
1q!
0s!
0O"
1n!
1p!
1i!
0m!
1=!
0n!
0q!
1t!
1v!
1w!
0w!
#1680000
0!
0Q
0<!
#1700000
1!
1Q
1<!
1>!
1l!
0P"
0-!
0S"
0i!
1m!
0=!
0?!
1A!
0h
02!
1B!
1n!
0U"
0>
0m
07!
0/
0r
0:
#1720000
0!
0Q
0<!
#1740000
1!
1Q
1<!
0>!
0@!
1C!
0l!
1o!
0n!
0p!
1i!
0m!
0B!
0D!
1=!
0A!
1B!
1D!
0E!
1G!
1n!
1p!
1q!
0q!
1H!
1E!
0G!
0H!
#1760000
0!
0Q
0<!
#1780000
1!
1Q
1<!
1>!
1l!
0i!
1m!
0=!
1?!
0n!
0p!
1q!
#1800000
0!
0Q
0<!
#1820000
1!
1Q
1<!
0>!
1@!
0l!
0o!
1r!
0q!
1s!
1O"
1n!
1p!
1i!
0m!
1=!
0n!
1q!
0s!
0t!
0v!
1w!
1t!
1v!
0w!
#1840000
0!
0Q
0<!
#1860000
1!
1Q
1<!
1>!
1l!
1P"
1-!
1S"
0i!
1m!
0=!
0?!
1A!
1h
12!
0B!
0D!
1n!
1U"
1>
1m
17!
0E!
1G!
1/
1r
1H!
1:
#1880000
0!
0Q
0<!
#1900000
1!
1Q
1<!
0>!
0@!
0C!
0F!
1I!
0l!
1o!
0n!
0p!
1i!
0m!
0H!
0J!
1E!
0G!
1B!
1D!
1=!
0A!
0B!
0E!
1H!
1J!
0K!
1M!
1n!
1p!
0q!
1s!
0t!
0v!
1q!
0s!
1N!
1K!
0M!
0N!
1t!
1v!
1w!
0w!
#1920000
0!
0Q
0<!
#1940000
1!
1Q
1<!
1>!
1l!
0i!
1m!
0=!
1?!
0n!
0p!
0q!
1s!
0t!
0v!
1w!
#1960000
0!
0Q
0<!
#1980000
1!
1Q
1<!
0>!
1@!
0l!
0o!
0r!
0u!
1x!
0w!
1y!
1t!
1v!
1q!
0s!
0O"
1n!
1p!
1i!
0m!
1=!
0n!
0q!
0t!
1w!
#2000000
0!
0Q
0<!
#2020000
1!
1Q
1<!
1>!
1l!
1W"
0P"
0-!
0S"
1z!
1{!
1#"
0i!
1m!
0=!
0?!
1A!
0h
1,!
02!
1B!
1n!
0U"
0>
1g
0m
07!
1?
0/
0r
0:
#2040000
0!
0Q
0<!
#2060000
1!
1Q
1<!
0>!
0@!
1C!
0l!
1o!
1V"
0$"
1&"
1'"
0E"
1G"
0%"
1-"
0J"
0L"
0{!
0#"
0n!
0p!
1i!
0m!
0B!
0D!
1=!
0A!
1t"
0,!
1B!
1D!
1E!
1n!
1p!
1q!
0'"
0K"
1I"
1S"
1$!
0s"
1r"
0g
12!
1U"
0q!
0E!
1f
0?
1)!
0(!
1m
1,
17!
1a
0b
1/
1r
0(
1'
1:
#2080000
0!
0Q
0<!
#2100000
1!
1Q
1<!
1>!
1l!
0i!
1m!
0=!
1?!
0n!
0p!
1q!
#2120000
0!
0Q
0<!
#2140000
1!
1Q
1<!
0>!
1@!
0l!
0o!
1r!
0q!
1s!
1O"
1n!
1p!
1i!
0m!
1=!
0n!
1q!
0s!
1t!
0t!
#2160000
0!
0Q
0<!
#2180000
1!
1Q
1<!
1>!
1l!
1P"
1-!
0i!
1m!
0=!
0?!
1A!
1h
0B!
0D!
1n!
1>
1E!
#2200000
0!
0Q
0<!
#2220000
1!
1Q
1<!
0>!
0@!
0C!
1F!
0l!
1o!
0n!
0p!
1i!
0m!
0E!
1G!
1B!
1D!
1=!
0A!
0B!
1E!
0G!
0H!
0J!
1n!
1p!
0q!
1s!
1t!
1q!
0s!
0K!
1M!
1H!
1J!
1K!
0M!
1N!
0t!
0N!
#2240000
0!
0Q
0<!
#2260000
1!
1Q
1<!
1>!
1l!
0i!
1m!
0=!
1?!
0n!
0p!
0q!
1s!
1t!
